<?xml version="1.0" standalone="no"?>
<!DOCTYPE svg PUBLIC "-//W3C//DTD SVG 20010904//EN"
 "http://www.w3.org/TR/2001/REC-SVG-20010904/DTD/svg10.dtd">
<svg version="1.0" xmlns="http://www.w3.org/2000/svg"
 width="260.000000pt" height="260.000000pt" viewBox="0 0 260.000000 260.000000"
 preserveAspectRatio="xMidYMid meet">
<metadata>
Created by potrace 1.11, written by Peter Selinger 2001-2013
</metadata>
<g transform="translate(0.000000,260.000000) scale(0.100000,-0.100000)"
fill="#000000" stroke="none">
<path d="M452 2580 c-109 -29 -187 -74 -272 -160 -87 -86 -131 -163 -160 -276
-19 -74 -20 -113 -20 -844 0 -731 1 -770 20 -844 29 -113 73 -190 160 -276 86
-87 163 -131 276 -160 74 -19 113 -20 844 -20 731 0 770 1 844 20 113 29 190
73 276 160 87 86 131 163 160 276 19 74 20 113 20 844 0 731 -1 770 -20 844
-29 113 -73 190 -160 276 -86 87 -163 131 -276 160 -74 19 -112 20 -848 19
-726 0 -775 -1 -844 -19z m561 -353 c9 -30 17 -57 17 -60 0 -4 -15 -13 -33
-21 -70 -29 -130 -100 -160 -191 -5 -16 -13 -129 -17 -250 -6 -186 -10 -228
-27 -271 -25 -64 -65 -118 -108 -144 l-33 -20 62 -63 c89 -90 97 -119 106
-387 4 -118 12 -229 17 -245 31 -91 90 -162 160 -191 18 -8 33 -17 33 -21 0
-3 -8 -30 -17 -60 -19 -61 -16 -61 -122 -12 -118 54 -192 133 -234 247 -17 48
-21 91 -27 272 -8 240 -16 277 -76 329 -32 28 -88 51 -126 51 -16 0 -18 10
-18 75 0 65 2 75 18 75 36 0 93 22 123 48 62 52 72 93 80 332 4 154 11 229 23
265 31 101 110 191 211 242 44 23 111 50 126 52 3 1 13 -23 22 -52z m744 7
c116 -55 196 -147 233 -269 7 -22 15 -136 19 -255 6 -175 11 -223 26 -259 23
-56 82 -99 146 -107 l49 -7 0 -73 c0 -69 -1 -74 -21 -74 -44 0 -104 -25 -135
-57 -52 -51 -64 -110 -64 -302 0 -184 -14 -269 -54 -349 -37 -72 -117 -147
-200 -187 -116 -54 -111 -55 -134 13 l-19 58 55 29 c34 18 67 45 87 74 58 80
67 122 74 366 6 193 10 226 28 266 24 55 85 124 125 145 l29 15 -38 28 c-57
43 -90 81 -114 136 -21 45 -24 71 -29 270 -6 187 -10 229 -28 278 -28 77 -71
129 -135 163 l-54 28 19 58 c23 68 18 67 135 12z"/>
</g>
</svg>
